Cluster	Module	Evidence	Specificity	Gene
BGC0000314	A0	Other	Coumaric acid	WP_010369400.1
BGC0000314	B1	Sequence-based prediction	Threonine	WP_010369425.1
BGC0000314	B2	Sequence-based prediction	Valine	WP_010369428.1
BGC0000314	B3	Sequence-based prediction	Asparagine	WP_010369428.1
BGC0000314	B4	Sequence-based prediction	Asparagine	WP_010369430.1
BGC0000314	B5	Sequence-based prediction	Isoleucine	WP_010369430.1
BGC0000369	0	Sequence-based prediction	Dihydroxy hexadecanoic acid	AHZ20766.1
BGC0000369	3	Sequence-based prediction	Threonine	AHZ20773.1
BGC0000369	4	Sequence-based prediction	Tyrosine	AHZ20773.1
BGC0000369	5	Sequence-based prediction	Threonine	AHZ20774.1
BGC0000369	6	Sequence-based prediction	Glutamine	AHZ20774.1
BGC0000369	7	Sequence-based prediction	Glycine	AHZ20774.1
BGC0000369	1	Sequence-based prediction	Threonine	AHZ20781.1
BGC0000369	2	Sequence-based prediction	Threonine	AHZ20781.1
BGC0000369	8	Sequence-based prediction	N-methyl-threonine	AHZ20784.1
BGC0000369	9	Sequence-based prediction	Glutamine / Tyrosine	AHZ20784.1
BGC0000398	A1	Structure-based inference	Leucine	AFH75328.1
BGC0000398	A2	Structure-based inference	Glutamate	AFH75328.1
BGC0000398	B1	Structure-based inference	Threonine	AFH75329.1
BGC0000398	B2	Structure-based inference	Valine	AFH75329.1
BGC0000398	B3	Structure-based inference	Leucine	AFH75329.1
BGC0000398	B4	Structure-based inference	Serine	AFH75329.1
BGC0000398	C3	Structure-based inference	Serine	AFH75330.1
BGC0000398	C2	Structure-based inference	Leucine	AFH75330.1
BGC0000398	C1	Structure-based inference	Leucine	AFH75330.1
BGC0000398	C4	Structure-based inference	Valine	AFH75330.1
BGC0000416	1	Structure-based inference	Leucine	CBJ90287.1
BGC0000416	2	Structure-based inference	Valine	CBJ90288.1
BGC0000416	3	Structure-based inference	Valine	CBJ90289.1
BGC0000419	1	Structure-based inference	Hydroxyphenylglycine	AIG79243.1
BGC0000419	2	Structure-based inference	Beta-hydroxytyrosine	AIG79243.1
BGC0000419	3	Structure-based inference	3,5-Dihydroxyphenylglycine	AIG79242.1
BGC0000419	4	Structure-based inference	4-Hydroxyphenylglycine	AIG79241.1
BGC0000419	5	Structure-based inference	4-Hydroxyphenylglycine	AIG79241.1
BGC0000419	6	Structure-based inference	Beta-hydroxytyrosine	AIG79241.1
BGC0000419	7	Structure-based inference	3,5-Dihydroxyphenylglycine	AIG79240.1
BGC0000425	1	Structure-based inference	2,3-Dehydro-2-aminobutyric acid	AFH75320.1
BGC0000425	2	Structure-based inference	D-proline	AFH75320.1
BGC0000425	3	Structure-based inference	D-serine	AFH75320.1
BGC0000425	4	Structure-based inference	D-leucine	AFH75320.1
BGC0000425	5	Structure-based inference	D-valine	AFH75320.1
BGC0000425	6	Structure-based inference	D-glutamine	AFH75320.1
BGC0000425	10	Structure-based inference	D-glutamine	AFH75321.1
BGC0000425	11	Structure-based inference	Leucine	AFH75321.1
BGC0000425	12	Structure-based inference	D-valine	AFH75321.1
BGC0000425	7	Structure-based inference	D-leucine	AFH75321.1
BGC0000425	8	Structure-based inference	D-valine	AFH75321.1
BGC0000425	9	Structure-based inference	Valine	AFH75321.1
BGC0000425	13	Structure-based inference	2,3-Dehydro-2-aminobutyric acid	AFH75322.1
BGC0000425	14	Structure-based inference	D-allothreonine	AFH75322.1
BGC0000425	15	Structure-based inference	Isoleucine	AFH75322.1
BGC0000425	16	Structure-based inference	Homoserine	AFH75322.1
BGC0000425	17	Structure-based inference	2,4-Diaminobutyric acid	AFH75322.1
BGC0000425	18	Structure-based inference	Lysine	AFH75322.1
BGC0000426	1	Structure-based inference	Phenylalanine	AGZ03650.1
BGC0000426	2	Structure-based inference	Alanine	AGZ03651.1
BGC0000426	3	Structure-based inference	Tryptophan	AGZ03651.1
BGC0000431	0	Structure-based inference	Cysteic acid	EFE73308.1
BGC0000431	1	Structure-based inference	Threonine	EFE73312.1
BGC0000431	2	Structure-based inference	Serine	EFE73312.1
BGC0000431	3	Structure-based inference	2,3-Diaminopropionic acid	EFE73312.1
BGC0000431	5	Structure-based inference	Threonine	EFE73312.1
BGC0000431	6	Structure-based inference	Valine	EFE73312.1
BGC0000431	7	Structure-based inference	Serine	EFE73313.1
BGC0000431	8	Structure-based inference	Lysine	EFE73313.1
BGC0000431	9	Structure-based inference	Glycine	EFE73313.1
BGC0000463	1	Structure-based inference	Leucine	AGM14925.1
BGC0000463	2	Structure-based inference	Glutamate	AGM14925.1
BGC0000463	10	Structure-based inference	Glutamine	AGM14933.1
BGC0000463	3	Structure-based inference	Glutamine	AGM14933.1
BGC0000463	4	Structure-based inference	Valine	AGM14933.1
BGC0000463	5	Structure-based inference	Leucine	AGM14933.1
BGC0000463	6	Structure-based inference	Glutamine	AGM14933.1
BGC0000463	7	Structure-based inference	Serine	AGM14933.1
BGC0000463	8	Structure-based inference	Valine	AGM14933.1
BGC0000463	9	Structure-based inference	Leucine	AGM14933.1
BGC0000463	11	Structure-based inference	Leucine	AGM14934.1
BGC0000463	12	Structure-based inference	Leucine	AGM14934.1
BGC0000463	13	Structure-based inference	Glutamine	AGM14934.1
BGC0000463	14	Structure-based inference	Isoleucine; Valine	AGM14934.1
BGC0001123	1	Activity assay	Phenylalanine	AOR_1_68164, XP_001818608
BGC0001132	1	Structure-based inference	Valine	xnc1_2022
BGC0001132	2	Structure-based inference	Leucine	xnc1_2022
BGC0001132	3	Structure-based inference	Valine	xnc1_2022
BGC0001132	4	Structure-based inference	Valine	xnc1_2022
BGC0001133	1	Sequence-based prediction	Threonine	XBJ1_0775
BGC0001133	2	Sequence-based prediction	Serine	XBJ1_0775
BGC0001133	4	Structure-based inference	Leucine	XBJ1_0775
BGC0001133	5	Sequence-based prediction	Leucine	XBJ1_0774
BGC0001133	6	Sequence-based prediction	Leucine	XBJ1_0774
BGC0001133	7	Sequence-based prediction	Serine	XBJ1_0774
BGC0001147	x	Other	4-acetamidopyrrole-2-carboxylate	AIS24844.1
BGC0001147	x	Other	glycocyamine	AIS24862.1
BGC0001149	1	Activity assay	Serine	CDF96614.1
BGC0001149	2	Sequence-based prediction	Proline	CDF96614.1
BGC0001166	1	Sequence-based prediction	Proline	AGQ43600.1
BGC0001166	2	Sequence-based prediction	Alanine	AGQ43600.1
BGC0001166	3	Sequence-based prediction	D-Alanine	AGQ43600.1
BGC0001166	4	Sequence-based prediction	2-amino-9,10-epoxi-8-oxodecanoic acid	AGQ43600.1
BGC0001168	1	Sequence-based prediction	Arginine	509516289
BGC0001178	1	Structure-based inference	4-Hydroxyphenylglycine	AGS77307.1
BGC0001178	2	Structure-based inference	Tyrosine	AGS77307.1
BGC0001178	3	Structure-based inference	3,5-Dihydroxy-phenylglycine	AGS77308.1
BGC0001178	4	Structure-based inference	4-Hydroxyphenylglycine	AGS77309.1
BGC0001178	6	Structure-based inference	Tyrosine	AGS77309.1
BGC0001178	7	Structure-based inference	3,5-Dihydroxy-phenylglycine	AGS77310.1
