{
    "general_params": {
        "compounds": [
            {
                "compound": "GE37468"
            }
        ], 
        "loci": {
            "nucl_acc": [
                {
                    "end_coord": 24412, 
                    "Accession": "JN052143", 
                    "start_coord": 7234
                }
            ]
        }, 
        "mibig_accession": "BGC0000605", 
        "RiPP": {
            "ripp_subclass": "Thiopeptide"
        }, 
        "publications": [
            "21788474"
        ], 
        "minimal": true, 
        "biosyn_class": [
            "RiPP"
        ]
    }
}