{
    "general_params": {
        "compounds": [
            {
                "database_deposited": true, 
                "pubchem_id": 72475, 
                "databases_deposited": [
                    "PubChem"
                ], 
                "compound": "pneumocandin"
            }
        ], 
        "loci": {
            "nucl_acc": [
                {
                    "end_coord": 296227, 
                    "Accession": "KE145356", 
                    "start_coord": 180393
                }
            ]
        }, 
        "mibig_accession": "BGC0001035", 
        "publications": [
            "23688303"
        ], 
        "Polyketide": {
            "pks_subclass": [
                "Type I"
            ]
        }, 
        "minimal": true, 
        "biosyn_class": [
            "NRP", 
            "Polyketide"
        ]
    }
}