{
    "general_params": {
        "compounds": [
            {
                "database_deposited": true, 
                "pubchem_id": 25200432, 
                "databases_deposited": [
                    "PubChem"
                ], 
                "compound": "validamycin"
            }
        ], 
        "loci": {
            "nucl_acc": [
                {
                    "end_coord": -1, 
                    "Accession": "AY753181", 
                    "start_coord": -1
                }
            ]
        }, 
        "mibig_accession": "BGC0000722", 
        "publications": [
            "16151088"
        ], 
        "minimal": true, 
        "biosyn_class": [
            "Saccharide"
        ]
    }
}