{
    "general_params": {
        "compounds": [
            {
                "compound": "A-503083"
            }
        ], 
        "loci": {
            "nucl_acc": [
                {
                    "end_coord": -1, 
                    "Accession": "AB538860", 
                    "start_coord": -1
                }
            ]
        }, 
        "mibig_accession": "BGC0000288", 
        "publications": [
            "20562876"
        ], 
        "minimal": true, 
        "biosyn_class": [
            "NRP"
        ]
    }
}