{
    "general_params": {
        "compounds": [
            {
                "database_deposited": true, 
                "pubchem_id": 11966095, 
                "databases_deposited": [
                    "PubChem"
                ], 
                "compound": "syringomycin"
            }
        ], 
        "loci": {
            "nucl_acc": [
                {
                    "end_coord": -1, 
                    "Accession": "AF286216", 
                    "start_coord": -1
                }
            ]
        }, 
        "mibig_accession": "BGC0000437", 
        "publications": [
            "11277431", 
            "12744455"
        ], 
        "minimal": true, 
        "biosyn_class": [
            "NRP"
        ]
    }
}