{
    "general_params": {
        "compounds": [
            {
                "compound": "celesticetin"
            }
        ], 
        "loci": {
            "nucl_acc": [
                {
                    "end_coord": 32621, 
                    "Accession": "GQ844764", 
                    "start_coord": 5268
                }
            ]
        }, 
        "mibig_accession": "BGC0001225", 
        "publications": [
            "25741696"
        ], 
        "minimal": true, 
        "biosyn_class": [
            "NRP"
        ]
    }
}